…
 }

Exploratory Data Analysis
(EDA)

# call the function and return all the data
all <- pick_makeup(makeup_brand = NULL, makeup_type = NULL)
all

## # A tibble: 877 × 7
##    brand     name                 product_type usd_price rating description                                 image_link
##    <chr>     <chr>                <chr>            <dbl>  <dbl> <chr>                                       <chr>     
##  1 colourpop Lippie Pencil        lip_liner         3.65     NA "Lippie Pencil A long-wearing and high-int… https://c…
##  2 colourpop Blotted Lip          lipstick          4.02     NA "Blotted Lip Sheer matte lipstick that cre… https://c…
##  3 colourpop Lippie Stix          lipstick          4.02     NA "Lippie Stix Formula contains Vitamin E, M… https://c…
##  4 colourpop No Filter Foundation foundation        8.76     NA "Developed for the Selfie Age, our buildab… https://c…
##  5 boosh     Lipstick             lipstick         19.0      NA "All of our products are free from lead an… https://c…
##  6 deciem    Serum Foundation     foundation        4.89     NA "Serum Foundations are lightweight medium-… https://3…
##  7 deciem    Coverage Foundation  foundation        5.04     NA "Coverage Foundations are full-coverage fo… https://3…
##  8 alva      Liquid Eye Shadow    eyeshadow         9.95     NA "Our Liquid Edition Eye Shadows have been … http://ww…
##  9 glossier  Stretch Concealer    foundation       22        NA "A traditional concealer sets to a stiff, … https://s…
## 10 glossier  Cloud Paint          blush            22        NA "With Cloud Paint, we set out to make blus… https://s…
## # ℹ 867 more rows

# write a function to convert "brand" and "product_type" to factors
add_factor <- function(df_1) {
                    df_1 %>%
                       mutate(Cosmetic_Brand = as.factor(df_1$brand), Cosmetic_Type = as.factor(df_1$product_type))
}

all_factor <- add_factor(all)
all_factor

## # A tibble: 877 × 9
##    brand     name                 product_type usd_price rating description    image_link Cosmetic_Brand Cosmetic_Type
##    <chr>     <chr>                <chr>            <dbl>  <dbl> <chr>          <chr>      <fct>          <fct>        
##  1 colourpop Lippie Pencil        lip_liner         3.65     NA "Lippie Penci… https://c… colourpop      lip_liner    
##  2 colourpop Blotted Lip          lipstick          4.02     NA "Blotted Lip … https://c… colourpop      lipstick     
##  3 colourpop Lippie Stix          lipstick          4.02     NA "Lippie Stix … https://c… colourpop      lipstick     
##  4 colourpop No Filter Foundation foundation        8.76     NA "Developed fo… https://c… colourpop      foundation   
##  5 boosh     Lipstick             lipstick         19.0      NA "All of our p… https://c… boosh          lipstick     
##  6 deciem    Serum Foundation     foundation        4.89     NA "Serum Founda… https://3… deciem         foundation   
##  7 deciem    Coverage Foundation  foundation        5.04     NA "Coverage Fou… https://3… deciem         foundation   
##  8 alva      Liquid Eye Shadow    eyeshadow         9.95     NA "Our Liquid E… http://ww… alva           eyeshadow    
##  9 glossier  Stretch Concealer    foundation       22        NA "A traditiona… https://s… glossier       foundation   
## 10 glossier  Cloud Paint          blush            22        NA "With Cloud P… https://s… glossier       blush        
## # ℹ 867 more rows
…
# call the function and return a subset data frame with only maybelline cosmetic products
mbl <- pick_makeup(makeup_brand = "maybelline", makeup_type = NULL)
mbl

## # A tibble: 54 × 7
##    brand      name                                                product_type usd_price rating description image_link
##    <chr>      <chr>                                               <chr>            <dbl>  <dbl> <chr>       <chr>     
##  1 maybelline "Maybelline Face Studio Master Hi-Light Light Boos… bronzer          15.0     5   "Maybellin… https://d…
##  2 maybelline "Maybelline Fit Me Bronzer"                         bronzer          10.3     4.5 "Why You'l… https://d…
##  3 maybelline "Maybelline Facestudio Master Contour Kit"          bronzer          16.0    NA   "Maybellin… https://d…
##  4 maybelline "Maybelline Face Studio Master Hi-Light Light Boos… blush            15.0    NA   "Maybellin… https://d…
##  5 maybelline "Maybelline Face Studio Master Hi-Light Light Boos… blush            15.0     5   "Maybellin… https://d…
##  6 maybelline "Maybelline Fit Me Blush"                           blush            10.3     4.8 "Maybellin… https://d…
##  7 maybelline "Maybelline Dream Bouncy Blush"                     blush            12.0     4.5 "Now, blus… https://d…
##  8 maybelline "Maybelline Color Sensational Lipliner"             lip_liner         8.29    3.5 "Keep your… https://d…
##  9 maybelline "Maybelline Dream Smooth Mousse Foundation"         foundation       14.8     3.8 "Why You'l… https://d…
## 10 maybelline "Maybelline Fit Me Shine-Free Foundation Stick"     foundation       11.0     4.7 "Get flawl… https://d…
## # ℹ 44 more rows

mbl_factor <- add_factor(mbl)
mbl_factor

## # A tibble: 54 × 9
##    brand      name                   product_type usd_price rating description image_link Cosmetic_Brand Cosmetic_Type
##    <chr>      <chr>                  <chr>            <dbl>  <dbl> <chr>       <chr>      <fct>          <fct>        
##  1 maybelline "Maybelline Face Stud… bronzer          15.0     5   "Maybellin… https://d… maybelline     bronzer      
##  2 maybelline "Maybelline Fit Me Br… bronzer          10.3     4.5 "Why You'l… https://d… maybelline     bronzer      
##  3 maybelline "Maybelline Facestudi… bronzer          16.0    NA   "Maybellin… https://d… maybelline     bronzer      
##  4 maybelline "Maybelline Face Stud… blush            15.0    NA   "Maybellin… https://d… maybelline     blush        
##  5 maybelline "Maybelline Face Stud… blush            15.0     5   "Maybellin… https://d… maybelline     blush        
##  6 maybelline "Maybelline Fit Me Bl… blush            10.3     4.8 "Maybellin… https://d… maybelline     blush        
##  7 maybelline "Maybelline Dream Bou… blush            12.0     4.5 "Now, blus… https://d… maybelline     blush        
##  8 maybelline "Maybelline Color Sen… lip_liner         8.29    3.5 "Keep your… https://d… maybelline     lip_liner    
##  9 maybelline "Maybelline Dream Smo… foundation       14.8     3.8 "Why You'l… https://d… maybelline     foundation   
## 10 maybelline "Maybelline Fit Me Sh… foundation       11.0     4.7 "Get flawl… https://d… maybelline     foundation   
## # ℹ 44 more rows
…
