…
## Second call

Call the API function again and get a subset data frame with only
“maybelline” cosmetic products

``` r
# call the function and return a subset data frame with only maybelline cosmetic products
mbl <- pick_makeup(makeup_brand = "maybelline", makeup_type = NULL)
mbl
```

    ## # A tibble: 54 × 9
    ##    brand      name                         product_type usd_price price_stat rating rating_stat description image_link
    ##    <chr>      <chr>                        <chr>            <dbl> <chr>       <dbl> <chr>       <chr>       <chr>     
    ##  1 maybelline "Maybelline Face Studio Mas… blush            15.0  This blus…   NA   No rating   "Maybellin… https://d…
    ##  2 maybelline "Maybelline Face Studio Mas… blush            15.0  This blus…    5   This blush… "Maybellin… https://d…
    ##  3 maybelline "Maybelline Fit Me Blush"    blush            10.3  This blus…    4.8 This blush… "Maybellin… https://d…
    ##  4 maybelline "Maybelline Dream Bouncy Bl… blush            12.0  This blus…    4.5 This blush… "Now, blus… https://d…
    ##  5 maybelline "Maybelline Face Studio Mas… bronzer          15.0  This bron…    5   This bronz… "Maybellin… https://d…
    ##  6 maybelline "Maybelline Fit Me Bronzer"  bronzer          10.3  This bron…    4.5 This bronz… "Why You'l… https://d…
    ##  7 maybelline "Maybelline Facestudio Mast… bronzer          16.0  This bron…   NA   No rating   "Maybellin… https://d…
    ##  8 maybelline "Maybelline Line Express Ey… eyeliner          7.29 This eyel…    4.5 This eyeli… "Maybellin… https://d…
    ##  9 maybelline "Maybelline Unstoppable Eye… eyeliner          8.99 This eyel…    4.3 This eyeli… "Unstoppab… https://d…
    ## 10 maybelline "Maybelline Color Show Kohl… eyeliner          5.99 This eyel…   NA   No rating   "Maybellin… https://d…
    ## # ℹ 44 more rows

``` r
mbl_factor <- add_factor(mbl)
mbl_factor
```

    ## # A tibble: 54 × 11
    ##    brand      name          product_type usd_price price_stat rating rating_stat description image_link Cosmetic_Brand
    ##    <chr>      <chr>         <chr>            <dbl> <chr>       <dbl> <chr>       <chr>       <chr>      <fct>         
    ##  1 maybelline "Maybelline … blush            15.0  This blus…   NA   No rating   "Maybellin… https://d… maybelline    
    ##  2 maybelline "Maybelline … blush            15.0  This blus…    5   This blush… "Maybellin… https://d… maybelline    
    ##  3 maybelline "Maybelline … blush            10.3  This blus…    4.8 This blush… "Maybellin… https://d… maybelline    
    ##  4 maybelline "Maybelline … blush            12.0  This blus…    4.5 This blush… "Now, blus… https://d… maybelline    
    ##  5 maybelline "Maybelline … bronzer          15.0  This bron…    5   This bronz… "Maybellin… https://d… maybelline    
    ##  6 maybelline "Maybelline … bronzer          10.3  This bron…    4.5 This bronz… "Why You'l… https://d… maybelline    
    ##  7 maybelline "Maybelline … bronzer          16.0  This bron…   NA   No rating   "Maybellin… https://d… maybelline    
    ##  8 maybelline "Maybelline … eyeliner          7.29 This eyel…    4.5 This eyeli… "Maybellin… https://d… maybelline    
    ##  9 maybelline "Maybelline … eyeliner          8.99 This eyel…    4.3 This eyeli… "Unstoppab… https://d… maybelline    
    ## 10 maybelline "Maybelline … eyeliner          5.99 This eyel…   NA   No rating   "Maybellin… https://d… maybelline    
    ## # ℹ 44 more rows
    ## # ℹ 1 more variable: Cosmetic_Type <fct>
…
